…
1000 bootstrap samples drawn with replacement from this dataframe

Ran bootstrap of sample size of 250, 1000 times

``` r
boot_straps = 
  tibble(
    strap_number = 1:1000,
    strap_sample = rerun(1000, boot_samp(sim_df_nonconst))
  )

boot_straps %>% pull(strap_sample) %>% .[[1]]
```

    ## # A tibble: 250 x 3
    ##         x   error      y
    ##     <dbl>   <dbl>  <dbl>
    ##  1 -1.89  -0.738  -4.40 
    ##  2 -1.89  -0.738  -4.40 
    ##  3 -1.51   1.08   -1.46 
    ##  4 -1.18   1.84    0.284
    ##  5 -1.18   1.84    0.284
    ##  6 -0.902 -0.527  -1.23 
    ##  7 -0.902 -0.527  -1.23 
    ##  8 -0.741  0.405   0.182
    ##  9 -0.740 -0.0549 -0.275
    ## 10 -0.674  1.48    1.46 
    ## # ... with 240 more rows
…
