…
``` r
cv_df = 
  crossv_mc(nonlin_df, 100)
```

What is going on here… We can covert any one of those samples into
dataframes

``` r
cv_df %>% pull(train) %>% .[[1]] %>% as_tibble()
```

    ## # A tibble: 79 x 3
    ##       id       x      y
    ##    <int>   <dbl>  <dbl>
    ##  1     1 0.306    0.834
    ##  2     2 0.00137 -0.298
    ##  3     3 0.817   -1.15 
    ##  4     5 0.344    0.160
    ##  5     6 0.230    0.722
    ##  6     7 0.812   -1.38 
    ##  7     8 0.854   -2.01 
    ##  8     9 0.00226  0.170
    ##  9    10 0.573    0.425
    ## 10    11 0.420    0.345
    ## # ... with 69 more rows

``` r
cv_df %>% pull(test) %>% .[[1]] %>% as_tibble()
```

    ## # A tibble: 21 x 3
    ##       id        x       y
    ##    <int>    <dbl>   <dbl>
    ##  1     4 0.571     0.252 
    ##  2    14 0.664    -0.0614
    ##  3    16 0.542     0.427 
    ##  4    20 0.948    -3.70  
    ##  5    22 0.770    -1.45  
    ##  6    23 0.215     1.29  
    ##  7    34 0.638     0.599 
    ##  8    35 0.000219 -0.446 
    ##  9    42 0.183     1.54  
    ## 10    44 0.274     0.561 
    ## # ... with 11 more rows
…
